…
```r
# konversi mtcars menjadi tibble
iris_tbl <- as_tibble(iris)

# print
iris_tbl
```

```
## # A tibble: 150 x 5
##    Sepal.Length Sepal.Width Petal.Length Petal.Width Species
##           <dbl>       <dbl>        <dbl>       <dbl> <fct>  
##  1          5.1         3.5          1.4         0.2 setosa 
##  2          4.9         3            1.4         0.2 setosa 
##  3          4.7         3.2          1.3         0.2 setosa 
##  4          4.6         3.1          1.5         0.2 setosa 
##  5          5           3.6          1.4         0.2 setosa 
##  6          5.4         3.9          1.7         0.4 setosa 
##  7          4.6         3.4          1.4         0.3 setosa 
##  8          5           3.4          1.5         0.2 setosa 
##  9          4.4         2.9          1.4         0.2 setosa 
## 10          4.9         3.1          1.5         0.1 setosa 
## # ... with 140 more rows
```
…
Tibbles dirancang agar kita tidak secara sengaja menampilkan data yang sangat banyak saat melakukan perintah `print()`. Tetapi terkadang kita membutuhkan lebih banyak output daripada tampilan default. Ada beberapa opsi yang dapat membantu.

Pertama, kita dapat secara eksplisit melakukan print data frame dan mengontrol jumlah baris (n) dan lebar tampilan. `width = Inf` akan menampilkan semua kolom. Berikut adalah contoh penerapannya


```r
print(iris_tbl, n=15, width=Inf)
```

```
## # A tibble: 150 x 5
##    Sepal.Length Sepal.Width Petal.Length Petal.Width Species
##           <dbl>       <dbl>        <dbl>       <dbl> <fct>  
##  1          5.1         3.5          1.4         0.2 setosa 
##  2          4.9         3            1.4         0.2 setosa 
##  3          4.7         3.2          1.3         0.2 setosa 
##  4          4.6         3.1          1.5         0.2 setosa 
##  5          5           3.6          1.4         0.2 setosa 
##  6          5.4         3.9          1.7         0.4 setosa 
##  7          4.6         3.4          1.4         0.3 setosa 
##  8          5           3.4          1.5         0.2 setosa 
##  9          4.4         2.9          1.4         0.2 setosa 
## 10          4.9         3.1          1.5         0.1 setosa 
## 11          5.4         3.7          1.5         0.2 setosa 
## 12          4.8         3.4          1.6         0.2 setosa 
## 13          4.8         3            1.4         0.1 setosa 
## 14          4.3         3            1.1         0.1 setosa 
## 15          5.8         4            1.2         0.2 setosa 
## # ... with 135 more rows
```
…
b. **Subsetting**

Sejauh ini semua alat yang kita pelajari telah bekerja dengan data frame yang lengkap. Jika kita ingin mengeluarkan variabel tunggal, kita memerlukan beberapa alat baru, dollar sign (`$`) dan [[. [[dapat mengekstraksi berdasarkan nama atau posisi; `$` hanya mengekstraksi berdasarkan nama. Berikut adalah contoh penerapannya:


```r
# print tibble
iris_tbl
```

```
## # A tibble: 150 x 5
##    Sepal.Length Sepal.Width Petal.Length Petal.Width Species
##           <dbl>       <dbl>        <dbl>       <dbl> <fct>  
##  1          5.1         3.5          1.4         0.2 setosa 
##  2          4.9         3            1.4         0.2 setosa 
##  3          4.7         3.2          1.3         0.2 setosa 
##  4          4.6         3.1          1.5         0.2 setosa 
##  5          5           3.6          1.4         0.2 setosa 
##  6          5.4         3.9          1.7         0.4 setosa 
##  7          4.6         3.4          1.4         0.3 setosa 
##  8          5           3.4          1.5         0.2 setosa 
##  9          4.4         2.9          1.4         0.2 setosa 
## 10          4.9         3.1          1.5         0.1 setosa 
## # ... with 140 more rows
```
…
Misalkan kita ingin melihat urutan mobil pada data `mtcars` berdasarkan penggunaan bahan bakar (`mpg`) dan bobot mobil (`wt`) tersebut. Berikut adalah sintaks yang digunakan:


```r
data("mtcars")

# Ubah mtcars menjadi tibble
mtcars<- as_tibble(mtcars)

arrange(mtcars, mpg, wt)
```

```
## # A tibble: 32 x 11
##      mpg   cyl  disp    hp  drat    wt  qsec    vs    am  gear  carb
##    <dbl> <dbl> <dbl> <dbl> <dbl> <dbl> <dbl> <dbl> <dbl> <dbl> <dbl>
##  1  10.4     8  472    205  2.93  5.25  18.0     0     0     3     4
##  2  10.4     8  460    215  3     5.42  17.8     0     0     3     4
##  3  13.3     8  350    245  3.73  3.84  15.4     0     0     3     4
##  4  14.3     8  360    245  3.21  3.57  15.8     0     0     3     4
##  5  14.7     8  440    230  3.23  5.34  17.4     0     0     3     4
##  6  15       8  301    335  3.54  3.57  14.6     0     1     5     8
##  7  15.2     8  304    150  3.15  3.44  17.3     0     0     3     2
##  8  15.2     8  276.   180  3.07  3.78  18       0     0     3     3
##  9  15.5     8  318    150  2.76  3.52  16.9     0     0     3     2
## 10  15.8     8  351    264  4.22  3.17  14.5     0     1     5     4
## # ... with 22 more rows
```

Jika ingin urutan yang digunakan adalah dari yang terbesar ke terkecil untuk kedua variabel tersebut jalankan sintaks berikut:


```r
arrange(mtcars, desc(mpg), desc(wt))
```

```
## # A tibble: 32 x 11
##      mpg   cyl  disp    hp  drat    wt  qsec    vs    am  gear  carb
##    <dbl> <dbl> <dbl> <dbl> <dbl> <dbl> <dbl> <dbl> <dbl> <dbl> <dbl>
##  1  33.9     4  71.1    65  4.22  1.84  19.9     1     1     4     1
##  2  32.4     4  78.7    66  4.08  2.2   19.5     1     1     4     1
##  3  30.4     4  75.7    52  4.93  1.62  18.5     1     1     4     2
##  4  30.4     4  95.1   113  3.77  1.51  16.9     1     1     5     2
##  5  27.3     4  79      66  4.08  1.94  18.9     1     1     4     1
##  6  26       4 120.     91  4.43  2.14  16.7     0     1     5     2
##  7  24.4     4 147.     62  3.69  3.19  20       1     0     4     2
##  8  22.8     4 141.     95  3.92  3.15  22.9     1     0     4     2
##  9  22.8     4 108      93  3.85  2.32  18.6     1     1     4     1
## 10  21.5     4 120.     97  3.7   2.46  20.0     1     0     3     1
## # ... with 22 more rows
```

Jika menggunakan fungsi `order()`:


```r
attach(mtcars)
# urutan dari kecil ke besar
mtcars[order(mpg, wt), ]
```

```
## # A tibble: 32 x 11
##      mpg   cyl  disp    hp  drat    wt  qsec    vs    am  gear  carb
##    <dbl> <dbl> <dbl> <dbl> <dbl> <dbl> <dbl> <dbl> <dbl> <dbl> <dbl>
##  1  10.4     8  472    205  2.93  5.25  18.0     0     0     3     4
##  2  10.4     8  460    215  3     5.42  17.8     0     0     3     4
##  3  13.3     8  350    245  3.73  3.84  15.4     0     0     3     4
##  4  14.3     8  360    245  3.21  3.57  15.8     0     0     3     4
##  5  14.7     8  440    230  3.23  5.34  17.4     0     0     3     4
##  6  15       8  301    335  3.54  3.57  14.6     0     1     5     8
##  7  15.2     8  304    150  3.15  3.44  17.3     0     0     3     2
##  8  15.2     8  276.   180  3.07  3.78  18       0     0     3     3
##  9  15.5     8  318    150  2.76  3.52  16.9     0     0     3     2
## 10  15.8     8  351    264  4.22  3.17  14.5     0     1     5     4
## # ... with 22 more rows
```

```r
# urutan dari besar ke kecil
mtcars[order(-mpg, -wt), ]
```

```
## # A tibble: 32 x 11
##      mpg   cyl  disp    hp  drat    wt  qsec    vs    am  gear  carb
##    <dbl> <dbl> <dbl> <dbl> <dbl> <dbl> <dbl> <dbl> <dbl> <dbl> <dbl>
##  1  33.9     4  71.1    65  4.22  1.84  19.9     1     1     4     1
##  2  32.4     4  78.7    66  4.08  2.2   19.5     1     1     4     1
##  3  30.4     4  75.7    52  4.93  1.62  18.5     1     1     4     2
##  4  30.4     4  95.1   113  3.77  1.51  16.9     1     1     5     2
##  5  27.3     4  79      66  4.08  1.94  18.9     1     1     4     1
##  6  26       4 120.     91  4.43  2.14  16.7     0     1     5     2
##  7  24.4     4 147.     62  3.69  3.19  20       1     0     4     2
##  8  22.8     4 141.     95  3.92  3.15  22.9     1     0     4     2
##  9  22.8     4 108      93  3.85  2.32  18.6     1     1     4     1
## 10  21.5     4 120.     97  3.7   2.46  20.0     1     0     3     1
## # ... with 22 more rows
```
…
```r
# memasang paket
# install.packages("nycflights13")

# memuat data frame
library(nycflights13)

# data
flights
```

```
## # A tibble: 336,776 x 19
##     year month   day dep_time sched_dep_time dep_delay arr_time
##    <int> <int> <int>    <int>          <int>     <dbl>    <int>
##  1  2013     1     1      517            515         2      830
##  2  2013     1     1      533            529         4      850
##  3  2013     1     1      542            540         2      923
##  4  2013     1     1      544            545        -1     1004
##  5  2013     1     1      554            600        -6      812
##  6  2013     1     1      554            558        -4      740
##  7  2013     1     1      555            600        -5      913
##  8  2013     1     1      557            600        -3      709
##  9  2013     1     1      557            600        -3      838
## 10  2013     1     1      558            600        -2      753
## # ... with 336,766 more rows, and 12 more variables: sched_arr_time <int>,
## #   arr_delay <dbl>, carrier <chr>, flight <int>, tailnum <chr>,
## #   origin <chr>, dest <chr>, air_time <dbl>, distance <dbl>, hour <dbl>,
## #   minute <dbl>, time_hour <dttm>
```


```r
# pilih kolom berdasarkan nama kolom
select(flights, year, month, day)
```

```
## # A tibble: 336,776 x 3
##     year month   day
##    <int> <int> <int>
##  1  2013     1     1
##  2  2013     1     1
##  3  2013     1     1
##  4  2013     1     1
##  5  2013     1     1
##  6  2013     1     1
##  7  2013     1     1
##  8  2013     1     1
##  9  2013     1     1
## 10  2013     1     1
## # ... with 336,766 more rows
```

```r
# pilih seluruh kolom dari year sampai day
select(flights, year:day)
```

```
## # A tibble: 336,776 x 3
##     year month   day
##    <int> <int> <int>
##  1  2013     1     1
##  2  2013     1     1
##  3  2013     1     1
##  4  2013     1     1
##  5  2013     1     1
##  6  2013     1     1
##  7  2013     1     1
##  8  2013     1     1
##  9  2013     1     1
## 10  2013     1     1
## # ... with 336,766 more rows
```

```r
# drop kolom dari year sampai day
select(flights, -(year:day))
```

```
## # A tibble: 336,776 x 16
##    dep_time sched_dep_time dep_delay arr_time sched_arr_time arr_delay
##       <int>          <int>     <dbl>    <int>          <int>     <dbl>
##  1      517            515         2      830            819        11
##  2      533            529         4      850            830        20
##  3      542            540         2      923            850        33
##  4      544            545        -1     1004           1022       -18
##  5      554            600        -6      812            837       -25
##  6      554            558        -4      740            728        12
##  7      555            600        -5      913            854        19
##  8      557            600        -3      709            723       -14
##  9      557            600        -3      838            846        -8
## 10      558            600        -2      753            745         8
## # ... with 336,766 more rows, and 10 more variables: carrier <chr>,
## #   flight <int>, tailnum <chr>, origin <chr>, dest <chr>, air_time <dbl>,
## #   distance <dbl>, hour <dbl>, minute <dbl>, time_hour <dttm>
```

```r
# pilih kolom dengan akhiran time
select(flights, ends_with("time"))
```

```
## # A tibble: 336,776 x 5
##    dep_time sched_dep_time arr_time sched_arr_time air_time
##       <int>          <int>    <int>          <int>    <dbl>
##  1      517            515      830            819      227
##  2      533            529      850            830      227
##  3      542            540      923            850      160
##  4      544            545     1004           1022      183
##  5      554            600      812            837      116
##  6      554            558      740            728      150
##  7      555            600      913            854      158
##  8      557            600      709            723       53
##  9      557            600      838            846      140
## 10      558            600      753            745      138
## # ... with 336,766 more rows
```

```r
# pilih kolom yang mengandung karakter "arr"
select(flights, contains("arr"))
```

```
## # A tibble: 336,776 x 4
##    arr_time sched_arr_time arr_delay carrier
##       <int>          <int>     <dbl> <chr>  
##  1      830            819        11 UA     
##  2      850            830        20 UA     
##  3      923            850        33 AA     
##  4     1004           1022       -18 B6     
##  5      812            837       -25 DL     
##  6      740            728        12 UA     
##  7      913            854        19 B6     
##  8      709            723       -14 EV     
##  9      838            846        -8 B6     
## 10      753            745         8 AA     
## # ... with 336,766 more rows
```

Kita juga dapat menggunakan fungsi tambahan `everithing()` yang berguna jika kita ingin memindahkan variabel yang menjadi fokus kita ke awal data frame tanpa melakukan drop variabel. Berikut adalah contoh sintaksnya:


```r
# pindahkan kolom yang mengandung time di awal
select(flights, contains("time"), everything())
```

```
## # A tibble: 336,776 x 19
##    dep_time sched_dep_time arr_time sched_arr_time air_time
##       <int>          <int>    <int>          <int>    <dbl>
##  1      517            515      830            819      227
##  2      533            529      850            830      227
##  3      542            540      923            850      160
##  4      544            545     1004           1022      183
##  5      554            600      812            837      116
##  6      554            558      740            728      150
##  7      555            600      913            854      158
##  8      557            600      709            723       53
##  9      557            600      838            846      140
## 10      558            600      753            745      138
## # ... with 336,766 more rows, and 14 more variables: time_hour <dttm>,
## #   year <int>, month <int>, day <int>, dep_delay <dbl>, arr_delay <dbl>,
## #   carrier <chr>, flight <int>, tailnum <chr>, origin <chr>, dest <chr>,
## #   distance <dbl>, hour <dbl>, minute <dbl>
```
…
# mutate()
mutate(flights_sml,
  gain = arr_delay - dep_delay,
  hours = air_time / 60,
  gain_per_hour = gain / hours
)
```

```
## # A tibble: 336,776 x 10
##     year month   day dep_delay arr_delay distance air_time  gain hours
##    <int> <int> <int>     <dbl>     <dbl>    <dbl>    <dbl> <dbl> <dbl>
##  1  2013     1     1         2        11     1400      227     9 3.78 
##  2  2013     1     1         4        20     1416      227    16 3.78 
##  3  2013     1     1         2        33     1089      160    31 2.67 
##  4  2013     1     1        -1       -18     1576      183   -17 3.05 
##  5  2013     1     1        -6       -25      762      116   -19 1.93 
##  6  2013     1     1        -4        12      719      150    16 2.5  
##  7  2013     1     1        -5        19     1065      158    24 2.63 
##  8  2013     1     1        -3       -14      229       53   -11 0.883
##  9  2013     1     1        -3        -8      944      140    -5 2.33 
## 10  2013     1     1        -2         8      733      138    10 2.3  
## # ... with 336,766 more rows, and 1 more variable: gain_per_hour <dbl>
```

Jika hanya ingin menyisakan variabel output fungsi `mutate()` pada data frame (variabel lain di drop), kita dapat menggunakan fungsi `transmute()`. Berikut adalah contoh sintaks yang digunakan:


```r
transmute(flights,
  gain = arr_delay - dep_delay,
  hours = air_time / 60,
  gain_per_hour = gain / hours
)
```

```
## # A tibble: 336,776 x 3
##     gain hours gain_per_hour
##    <dbl> <dbl>         <dbl>
##  1     9 3.78           2.38
##  2    16 3.78           4.23
##  3    31 2.67          11.6 
##  4   -17 3.05          -5.57
##  5   -19 1.93          -9.83
##  6    16 2.5            6.4 
##  7    24 2.63           9.11
##  8   -11 0.883        -12.5 
##  9    -5 2.33          -2.14
## 10    10 2.3            4.35
## # ... with 336,766 more rows
```
Adapaun fungsi-fungsi dan operator yang dapat digunakan pada `mutate()` untuk membuat variabel baru adalah sebagai berikut:

1. **Operator aritmatik** (+,-,*,/,^, %/%, %%). operator aritmetik seperti %/% dan %% sangat berguna dalam memecah integer menjadi beberapa bagian seperti hasil bagi tanpa sisa (%/%) dan sisa hasil bagi (%%). Berikut adalah contoh penerapannya:


```r
transmute(flights,
  dep_time,
  hour = dep_time %/% 100,
  minute = dep_time %% 100
)
```

```
## # A tibble: 336,776 x 3
##    dep_time  hour minute
##       <int> <dbl>  <dbl>
##  1      517     5     17
##  2      533     5     33
##  3      542     5     42
##  4      544     5     44
##  5      554     5     54
##  6      554     5     54
##  7      555     5     55
##  8      557     5     57
##  9      557     5     57
## 10      558     5     58
## # ... with 336,766 more rows
```
…
FUngsi ini akan lebih berguna saat digunakan dengan fungsi `group_by()` sehingga dapat diperoleh ringkasan data pada setiap grup. berikut adalah contoh penerapannya:


```r
by_day <- group_by(flights, year, month, day)
    summarize(by_day, delay = mean(dep_delay, na.rm = TRUE))
```

```
## # A tibble: 365 x 4
## # Groups:   year, month [12]
##     year month   day delay
##    <int> <int> <int> <dbl>
##  1  2013     1     1 11.5 
##  2  2013     1     2 13.9 
##  3  2013     1     3 11.0 
##  4  2013     1     4  8.95
##  5  2013     1     5  5.73
##  6  2013     1     6  7.15
##  7  2013     1     7  5.42
##  8  2013     1     8  2.55
##  9  2013     1     9  2.28
## 10  2013     1    10  2.84
## # ... with 355 more rows
```
…
# Print
delays
```

```
## # A tibble: 96 x 4
##    dest  count  dist delay
##    <chr> <int> <dbl> <dbl>
##  1 ABQ     254 1826   4.38
##  2 ACK     265  199   4.85
##  3 ALB     439  143  14.4 
##  4 ATL   17215  757. 11.3 
##  5 AUS    2439 1514.  6.02
##  6 AVL     275  584.  8.00
##  7 BDL     443  116   7.05
##  8 BGR     375  378   8.03
##  9 BHM     297  866. 16.9 
## 10 BNA    6333  758. 11.8 
## # ... with 86 more rows
```
…
```r
# memuat dataset
trees <- as_tibble(trees)

# print 
trees
```

```
## # A tibble: 31 x 3
##    Girth Height Volume
##    <dbl>  <dbl>  <dbl>
##  1   8.3     70   10.3
##  2   8.6     65   10.3
##  3   8.8     63   10.2
##  4  10.5     72   16.4
##  5  10.7     81   18.8
##  6  10.8     83   19.7
##  7  11       66   15.6
##  8  11       75   18.2
##  9  11.1     80   22.6
## 10  11.2     75   19.9
## # ... with 21 more rows
```
…
Untuk lebih memahami penggunaan fungsi tersebut, berikut akan disajikan contoh penggunaannya pada dataset `iris`. Sebelum melakukannya jalankan sintaks berikut untuk memuat dataset:


```r
# memuat dataset irir
iris <- as_tibble(iris)

# print
iris
```

```
## # A tibble: 150 x 5
##    Sepal.Length Sepal.Width Petal.Length Petal.Width Species
##           <dbl>       <dbl>        <dbl>       <dbl> <fct>  
##  1          5.1         3.5          1.4         0.2 setosa 
##  2          4.9         3            1.4         0.2 setosa 
##  3          4.7         3.2          1.3         0.2 setosa 
##  4          4.6         3.1          1.5         0.2 setosa 
##  5          5           3.6          1.4         0.2 setosa 
##  6          5.4         3.9          1.7         0.4 setosa 
##  7          4.6         3.4          1.4         0.3 setosa 
##  8          5           3.4          1.5         0.2 setosa 
##  9          4.4         2.9          1.4         0.2 setosa 
## 10          4.9         3.1          1.5         0.1 setosa 
## # ... with 140 more rows
```
…
