4.1 Visualisasi Data Menggunakan Fungsi plot() | Statistika Lingkungan Menggunakan R
…
Gambar 4.1: Plot berbagai jenis setting type

Pada contoh selanjutnya akan dilakukan plot terhadap dataset trees. Untuk memuatnya jalankan sintaks berikut:

library(tibble)

# memuat dataset
trees <- as_tibble(trees)

# print 
trees

## # A tibble: 31 x 3
##    Girth Height Volume
##    <dbl>  <dbl>  <dbl>
##  1   8.3     70   10.3
##  2   8.6     65   10.3
##  3   8.8     63   10.2
##  4  10.5     72   16.4
##  5  10.7     81   18.8
##  6  10.8     83   19.7
##  7  11       66   15.6
##  8  11       75   18.2
##  9  11.1     80   22.6
## 10  11.2     75   19.9
## # ... with 21 more rows
…
