4.2 Matriks Scatterplot | Statistika Lingkungan Menggunakan R
…
Note: 

data: data frame

lower.panel: menampilkan atau tidak menampilkan panel bawah

Untuk lebih memahami penggunaan fungsi tersebut, berikut akan disajikan contoh penggunaannya pada dataset iris. Sebelum melakukannya jalankan sintaks berikut untuk memuat dataset:

# memuat dataset irir
iris <- as_tibble(iris)

# print
iris

## # A tibble: 150 x 5
##    Sepal.Length Sepal.Width Petal.Length Petal.Width
##           <dbl>       <dbl>        <dbl>       <dbl>
##  1          5.1         3.5          1.4         0.2
##  2          4.9         3            1.4         0.2
##  3          4.7         3.2          1.3         0.2
##  4          4.6         3.1          1.5         0.2
##  5          5           3.6          1.4         0.2
##  6          5.4         3.9          1.7         0.4
##  7          4.6         3.4          1.4         0.3
##  8          5           3.4          1.5         0.2
##  9          4.4         2.9          1.4         0.2
## 10          4.9         3.1          1.5         0.1
## # ... with 140 more rows, and 1 more variable:
## #   Species <fct>
…
Gambar 4.6: Matriks scatterplot iris tanpa panel bawah

Kita dapat merubah warna titik berdasarkan factor Species. Langkah pertama yang perlu dilakukan adalah melakukan drop variabel Species pada dataset dan memasukkan objek baru tanpa variabel tersebut kedalam fungsi pairs(). Warna berdasarkan grup diberikan dengan menambahkan parameter col= pada fungsi pairs(). Berikut adalah contoh penerapannya dan output yang dihasilkan pada Gambar 4.7:

# drop variabel Species
# simpan dataset baru pada objek iris2
iris2 <- iris[ ,1:4]

# print
iris2

## # A tibble: 150 x 4
##    Sepal.Length Sepal.Width Petal.Length Petal.Width
##           <dbl>       <dbl>        <dbl>       <dbl>
##  1          5.1         3.5          1.4         0.2
##  2          4.9         3            1.4         0.2
##  3          4.7         3.2          1.3         0.2
##  4          4.6         3.1          1.5         0.2
##  5          5           3.6          1.4         0.2
##  6          5.4         3.9          1.7         0.4
##  7          4.6         3.4          1.4         0.3
##  8          5           3.4          1.5         0.2
##  9          4.4         2.9          1.4         0.2
## 10          4.9         3.1          1.5         0.1
## # ... with 140 more rows
…
